%YAML 1.1
%TAG !u! tag:unity3d.com,2011:
--- !u!114 &11400000
MonoBehaviour:
  m_ObjectHideFlags: 0
  m_CorrespondingSourceObject: {fileID: 0}
  m_PrefabInstance: {fileID: 0}
  m_PrefabAsset: {fileID: 0}
  m_GameObject: {fileID: 0}
  m_Enabled: 1
  m_EditorHideFlags: 0
  m_Script: {fileID: 11500000, guid: 468a46d0ae32c3544b7d98094e6448a9, type: 3}
  m_Name: AddressableAssetSettings
  m_EditorClassIdentifier: 
  m_DefaultGroup: 095906dc3f2a1a44caa750a1fb351064
  m_CachedHash:
    serializedVersion: 2
    Hash: 00000000000000000000000000000000
  m_OptimizeCatalogSize: 0
  m_BuildRemoteCatalog: 0
  m_BundleLocalCatalog: 0
  m_CatalogRequestsTimeout: 0
  m_DisableCatalogUpdateOnStart: 0
  m_IgnoreUnsupportedFilesInBuild: 0
  m_UniqueBundleIds: 0
  m_NonRecursiveBuilding: 1
  m_CCDEnabled: 0
  m_maxConcurrentWebRequests: 500
  m_ContiguousBundles: 1
  m_StripUnityVersionFromBundleBuild: 0
  m_DisableVisibleSubAssetRepresentations: 0
  m_ShaderBundleNaming: 0
  m_ShaderBundleCustomNaming: 
  m_MonoScriptBundleNaming: 0
  m_MonoScriptBundleCustomNaming: 
  m_RemoteCatalogBuildPath:
    m_Id: 
  m_RemoteCatalogLoadPath:
    m_Id: 
  m_ContentStateBuildPath: 
  m_BuildAddressablesWithPlayerBuild: 0
  m_overridePlayerVersion: 
  m_GroupAssets:
  - {fileID: 11400000, guid: 16cb7c49e040a1d40a946230e75b319d, type: 2}
  - {fileID: 11400000, guid: 9d57f75f5e0e72542b37e5cb7b41907d, type: 2}
  m_BuildSettings:
    m_CompileScriptsInVirtualMode: 0
    m_CleanupStreamingAssetsAfterBuilds: 1
    m_LogResourceManagerExceptions: 1
    m_BundleBuildPath: Temp/com.unity.addressables/AssetBundles
  m_ProfileSettings:
    m_Profiles:
    - m_InheritedParent: 
      m_Id: 3238a47d8ab419340a0b2f36fe74a90b
      m_ProfileName: Default
      m_Values:
      - m_Id: cb39af360c3cf3d46ae9911b5a8f84d2
        m_Value: '[UnityEditor.EditorUserBuildSettings.activeBuildTarget]'
      - m_Id: afa3415f7991ff745b81f4756297b811
        m_Value: '[UnityEngine.AddressableAssets.Addressables.BuildPath]/[BuildTarget]'
      - m_Id: 352352fa194c10947a14ea24685b398f
        m_Value: '{UnityEngine.AddressableAssets.Addressables.RuntimePath}/[BuildTarget]'
      - m_Id: e1d0f9339ad1485418821b56cb206d0f
        m_Value: ServerData/[BuildTarget]
      - m_Id: 8e773513c4203884d96bff3b0c7372bc
        m_Value: http://[PrivateIpAddress]:[HostingServicePort]
    m_ProfileEntryNames:
    - m_Id: cb39af360c3cf3d46ae9911b5a8f84d2
      m_Name: BuildTarget
      m_InlineUsage: 0
    - m_Id: afa3415f7991ff745b81f4756297b811
      m_Name: Local.BuildPath
      m_InlineUsage: 0
    - m_Id: 352352fa194c10947a14ea24685b398f
      m_Name: Local.LoadPath
      m_InlineUsage: 0
    - m_Id: e1d0f9339ad1485418821b56cb206d0f
      m_Name: Remote.BuildPath
      m_InlineUsage: 0
    - m_Id: 8e773513c4203884d96bff3b0c7372bc
      m_Name: Remote.LoadPath
      m_InlineUsage: 0
    m_ProfileVersion: 1
  m_LabelTable:
    m_LabelNames:
    - default
  m_SchemaTemplates: []
  m_GroupTemplateObjects:
  - {fileID: 11400000, guid: 0acd82c290a5b864f9ac4e133c02c297, type: 2}
  m_InitializationObjects: []
  m_CertificateHandlerType:
    m_AssemblyName: 
    m_ClassName: 
  m_ActivePlayerDataBuilderIndex: 3
  m_DataBuilders:
  - {fileID: 11400000, guid: db966b7ee0be3254ea6dee4a2593fa45, type: 2}
  - {fileID: 11400000, guid: cdb95d4c6858ac34fad93d66783f2e79, type: 2}
  - {fileID: 11400000, guid: a5449543fe156884fa4fd23fede86727, type: 2}
  - {fileID: 11400000, guid: 16f1eb9d662fe944bb960202326a7ef4, type: 2}
  m_ActiveProfileId: 3238a47d8ab419340a0b2f36fe74a90b
  m_HostingServicesManager:
    m_HostingServiceInfos: []
    m_Settings: {fileID: 11400000}
    m_NextInstanceId: 0
    m_RegisteredServiceTypeRefs: []
